…
## Step 8 : Analyse de l'assignation du genre à l'échelle des auteurs : 


``` r
# Check 100 first authors without gender and most articles
NotGendered_authors <- authors_df %>% 
  filter(is.na(gender)) %>% 
  arrange(firstname)

NotGendered_authors #30 454 auteurs qui n'ont pas été assignés sur 111 116 auteurs différents (27% d'auteurs non assignés)
```

```
## # A tibble: 30,512 × 8
##    firstname lastname fullname                  fullname2 gender proportion_male
##    <chr>     <chr>    <chr>                     <chr>     <chr>            <dbl>
##  1 A         Aziz     Ab.Y. Aziz                " Aziz, … <NA>                NA
##  2 A         Karim    Ab.M.S. Karim             " Karim,… <NA>                NA
##  3 A         Kausar   A Rashid Kausar           " Kausar… <NA>                NA
##  4 A         Jung     A-Reum Jung               "Jung, A… <NA>                NA
##  5 A         Lucifero A Cura Di Nicola Lucifero "Lucifer… <NA>                NA
##  6 AG        Cariappa AG Adeeth Cariappa        "Cariapp… <NA>                NA
##  7 Aabgeena  Naeem    Aabgeena Naeem            " Naeem,… <NA>                NA
##  8 Aabroo    Mahal    Aabroo Mahal              " Mahal,… <NA>                NA
##  9 Aadhaar   Verma    Aadhaar Verma             " Verma,… <NA>                NA
## 10 Aaina     Rathore  Aaina Singh Rathore       " Rathor… <NA>                NA
## # ℹ 30,502 more rows
## # ℹ 2 more variables: proportion_female <dbl>, n_articles <int>
```
…
annual_stats_by_category
```

```
## # A tibble: 38 × 4
##       PY category_gender Mean_Proportion_Female_Id Mean_Proportion_Male_Id
##    <dbl> <chr>                               <dbl>                   <dbl>
##  1  2011 FF                                  1                       0    
##  2  2011 MF                                  0.276                   0.724
##  3  2011 MM                                  0                       1    
##  4  2012 FF                                  1                       0    
##  5  2012 MF                                  0.281                   0.719
##  6  2012 MM                                  0                       1    
##  7  2013 FF                                  1                       0    
##  8  2013 MF                                  0.269                   0.731
##  9  2013 MM                                  0                       1    
## 10  2014 FF                                  1                       0    
## # ℹ 28 more rows
```
…
```
## `summarise()` has grouped output by 'PY'. You can override using the `.groups`
## argument.
```

``` r
annual_stats_by_category_nbarticles
```

```
## # A tibble: 38 × 3
## # Groups:   PY [13]
##       PY category_gender nb_articles
##    <dbl> <chr>                 <int>
##  1  2011 FF                      193
##  2  2011 MF                     2208
##  3  2011 MM                     1347
##  4  2012 FF                      175
##  5  2012 MF                     2406
##  6  2012 MM                     1305
##  7  2013 FF                      235
##  8  2013 MF                     2515
##  9  2013 MM                     1396
## 10  2014 FF                      233
## # ℹ 28 more rows
```
…
``` r
annual_stats_by_CC <- Corpus.CleanedNames.2 %>%
  group_by(PY, CC) %>%
  summarize(
    Mean_Proportion_Female_Id = mean(proportion_gender_female_id, na.rm = TRUE),
    .groups = 'drop'
  )

annual_stats_by_CC
```

```
## # A tibble: 26 × 3
##       PY    CC Mean_Proportion_Female_Id
##    <dbl> <dbl>                     <dbl>
##  1  2011     0                     0.252
##  2  2011     1                     0.268
##  3  2012     0                     0.254
##  4  2012     1                     0.325
##  5  2013     0                     0.256
##  6  2013     1                     0.316
##  7  2014     0                     0.265
##  8  2014     1                     0.302
##  9  2015     0                     0.296
## 10  2015     1                     0.225
## # ℹ 16 more rows
```
…
