Quantifying interactions between economics of climate change, the rest of economics and other disciplines
…
This section presents an analysis of collaboration categories within academic research according to author gender. Descriptive statistics include the mean and median proportion of female and male authors assigned per category.

Let’s focus on the “MF” category, which represents articles written by authors of both genders. The average proportion of female authors in this category is around 46.36%, while the average proportion of male authors is slightly higher, at around 53.64%. This near-equality of proportions indicates a remarkable gender parity in mixed collaborations. Unlike the “F” and “FF” categories, where women are almost exclusively the sole authors, or the “M” and “MM” categories, where men strongly dominate, the “MF” category shows a more balanced distribution.

This is a significant result, as it underlines the importance of mixed collaborations in achieving a more balanced gender representation in academic research. The almost equal presence of men and women in mixed collaborations may reflect a more inclusive and diversified work dynamic. This parity in proportions could foster a research environment where the ideas and perspectives of both genders are better represented and integrated. Promoting this type of collaboration could be an effective way of reducing gender inequalities in academia. Policies and initiatives to encourage mixed-gender collaborations could thus play a crucial role in advancing gender equity in science and research.

Overall Temporal evolution

# A tibble: 75 × 3
      PY Mean_Proportion_Female_Id Mean_Proportion_Male_Id
   <dbl>                     <dbl>                   <dbl>
 1  1950                    0.0614                   0.939
 2  1951                    0.0697                   0.930
 3  1952                    0.0523                   0.948
 4  1953                    0.0642                   0.936
 5  1954                    0.0454                   0.955
 6  1955                    0.0656                   0.934
 7  1956                    0.100                    0.900
 8  1957                    0.100                    0.900
 9  1958                    0.128                    0.872
10  1959                    0.0971                   0.903
# ℹ 65 more rows
…
This section presents the evolution of the average proportion of female and male authors in academic publications, from 1950 to 2023. It reveals significant trends over several decades, highlighting gender dynamics in academic research.

From 1950 to 1970, the average proportion of female authors remained remarkably low, hovering around 0.06. During this period, male authors largely dominated publications, with proportions approaching 0.94. This disparity underlines the predominance of men in the academic field at the time.

Between 1970 and 1990, a slight increase in the proportion of female authors was observed, rising from around 0.12 to 0.15. This period marks the beginning of a gradual change, although men continue to represent a substantial majority.The increase remains modest, but indicates a trend towards gender diversification among academic authors.

From the 1990s onwards, the average proportion of female authors began to rise more significantly. By 1995, this proportion had risen to around 0.18, indicating greater inclusion of women in academic publications. This trend has continued steadily, with the proportion reaching around 0.30 in 2017. At the same time, the average proportion of male authors is gradually decreasing, but remains dominant.

Since 2017, the average proportion of female authors has exceeded 0.30, reaching 0.32 in 2020. This growth indicates increasing gender parity, although men continue to constitute a relative majority with an average proportion around 0.68. Recent years have seen a stabilization of these proportions, with slight fluctuations.

In conclusion, this section illustrates a positive trend towards greater inclusion of women in academic research over the decades. Although men are still in the majority, the continuing growth in the proportion of female authors bears witness to a gradual shift towards more balanced gender representation in scientific publications.

Temporal evolution according to categorical variables

# A tibble: 435 × 4
      PY category_gender Mean_Proportion_Female_Id Mean_Proportion_Male_Id
   <dbl> <chr>                               <dbl>                   <dbl>
 1  1950 F                                 0.997                   0.00276
 2  1950 M                                 0.00617                 0.994  
 3  1950 MF                                0.366                   0.634  
 4  1950 MM                                0.00694                 0.993  
 5  1950 <NA>                            NaN                     NaN      
 6  1951 F                                 0.992                   0.00819
 7  1951 M                                 0.00611                 0.994  
 8  1951 MF                                0.479                   0.521  
 9  1951 MM                                0.00610                 0.994  
10  1951 <NA>                            NaN                     NaN      
# ℹ 425 more rows
…
This section provides an analysis of the evolution of average author proportions by gender from 1950 to 2023, and highlights significant dynamics in academic collaborations.

Analysis of gender proportions in mixed collaborations (MF) from 1950 to 2023 reveals that in 1950, female authors represented an average of 37% of mixed teams, compared with 63% for male authors. This male dominance persisted until the 1960s. In the 1970s, the average proportion of female authors reached 48%, marking progress towards greater integration of women. From the 2000s onwards, the proportion of women authors continued to rise, although at just under 46%, reflecting a positive trend towards greater parity.

The data thus show a gradual integration of women into mixed collaborations, indicating steady progress towards gender parity in academic research, despite the persistence of a slight male majority.

Temporal evolution according to categorical variables, by number of articles

`summarise()` has grouped output by 'PY'. You can override using the `.groups`
argument.

# A tibble: 435 × 3
# Groups:   PY [75]
      PY category_gender nb_articles
   <dbl> <chr>                 <int>
 1  1950 F                        27
 2  1950 M                       491
 3  1950 MF                       12
 4  1950 MM                       33
 5  1950 <NA>                    368
 6  1951 F                        35
 7  1951 M                       525
 8  1951 MF                        6
 9  1951 MM                       21
10  1951 <NA>                    365
# ℹ 425 more rows
…
Analysis of the data on the number of articles relating to climate change, represented by the binary variable “CC” (climate change) and the gender category, reveals some interesting trends in the distribution of publications.

Looking at the descriptive statistics, we observe a marked disparity in the number of articles published according to gender category and type of scientific research. In the “CC = 0” category (not focused on climate change), the distribution of articles by gender is significantly different from that observed in the “CC = 1” category (focused on climate change).

For the “CC = 0” category, which does not deal specifically with climate change, the data show a significant predominance of articles attributed to the masculine (296,893 articles) and feminine (86,249 articles) genders, followed by mixed gender combinations (167,934 articles for MF, 188,404 articles for MM). In contrast, the “CC = 1” category shows lower overall articles numbers, with a similar trend of male predominance, but with a slightly higher proportion of items attributed to mixed gender combinations (8,310 articles for MF, 7,149 articles for MM). Analysis of the number of articles by genre category therefore reveals that, despite the lower overall quantity of articles in the “CC = 1” category, mixed-genre combinations account for a significant share compared with the other categories, underlining an increased diversity in scientific collaborations focused on climate change.

Temporal evolution of the proportion of female authors by CC

# A tibble: 124 × 3
      PY    CC Mean_Proportion_Female_Id
   <dbl> <dbl>                     <dbl>
 1  1950     0                    0.0614
 2  1951     0                    0.0697
 3  1952     0                    0.0523
 4  1953     0                    0.0642
 5  1954     0                    0.0454
 6  1955     0                    0.0656
 7  1956     0                    0.100 
 8  1957     0                    0.100 
 9  1958     0                    0.128 
10  1959     0                    0.0971
# ℹ 114 more rows
…
